[
    {
        "boro_name":"Queens",
        "name":"St. Albans",
        "shape_area":77412747.8470000029,
        "nta":"QN08",
        "population":48593
    },
    {
        "boro_name":"Bronx",
        "name":"Van Cortlandt Village",
        "shape_area":25666124.5947999991,
        "nta":"BX28",
        "population":50100
    },
    {
        "boro_name":"Queens",
        "name":"South Ozone Park",
        "shape_area":82461393.7368000001,
        "nta":"QN55",
        "population":75878
    },
    {
        "boro_name":"Brooklyn",
        "name":"Canarsie",
        "shape_area":82089678.6388999969,
        "nta":"BK50",
        "population":83693
    },
    {
        "boro_name":"Bronx",
        "name":"Mount Hope",
        "shape_area":14716710.7401999999,
        "nta":"BX41",
        "population":51807
    },
    {
        "boro_name":"Queens",
        "name":"North Corona",
        "shape_area":18003888.3269999996,
        "nta":"QN26",
        "population":52037
    },
    {
        "boro_name":"Brooklyn",
        "name":"Fort Greene",
        "shape_area":16482821.6487000007,
        "nta":"BK68",
        "population":26079
    },
    {
        "boro_name":"Queens",
        "name":"Pomonok-Flushing Heights-Hillcrest",
        "shape_area":38835920.1943999976,
        "nta":"QN38",
        "population":34034
    },
    {
        "boro_name":"Queens",
        "name":"East Flushing",
        "shape_area":29453683.7952000014,
        "nta":"QN52",
        "population":26982
    },
    {
        "boro_name":"Brooklyn",
        "name":"Madison",
        "shape_area":27379161.9728000015,
        "nta":"BK44",
        "population":38917
    },
    {
        "boro_name":"Queens",
        "name":"South Jamaica",
        "shape_area":39971928.7079000026,
        "nta":"QN01",
        "population":38894
    },
    {
        "boro_name":"Bronx",
        "name":"Rikers Island",
        "shape_area":18163734.8416000009,
        "nta":"BX98",
        "population":11091
    },
    {
        "boro_name":"Queens",
        "name":"Hollis",
        "shape_area":22887773.3982999995,
        "nta":"QN07",
        "population":20269
    },
    {
        "boro_name":"Queens",
        "name":"Auburndale",
        "shape_area":34167059.6366000026,
        "nta":"QN48",
        "population":19996
    },
    {
        "boro_name":"Brooklyn",
        "name":"Bushwick North",
        "shape_area":24927927.3354999982,
        "nta":"BK77",
        "population":57138
    },
    {
        "boro_name":"Brooklyn",
        "name":"Kensington-Ocean Parkway",
        "shape_area":15893333.8213999998,
        "nta":"BK41",
        "population":36891
    },
    {
        "boro_name":"Brooklyn",
        "name":"Bedford",
        "shape_area":32629788.7441000007,
        "nta":"BK75",
        "population":70713
    },
    {
        "boro_name":"Queens",
        "name":"Cambria Heights",
        "shape_area":33076726.8720999993,
        "nta":"QN33",
        "population":18677
    },
    {
        "boro_name":"Queens",
        "name":"Glen Oaks-Floral Park-New Hyde Park",
        "shape_area":45658768.9248000011,
        "nta":"QN44",
        "population":22571
    },
    {
        "boro_name":"Manhattan",
        "name":"Manhattanville",
        "shape_area":10734804.7876999993,
        "nta":"MN06",
        "population":22950
    },
    {
        "boro_name":"Bronx",
        "name":"Bronxdale",
        "shape_area":15188958.6445000004,
        "nta":"BX07",
        "population":35538
    },
    {
        "boro_name":"Queens",
        "name":"Queensboro Hill",
        "shape_area":26541931.1140000001,
        "nta":"QN62",
        "population":20800
    },
    {
        "boro_name":"Staten Island",
        "name":"Charleston-Richmond Valley-Tottenville",
        "shape_area":145534202.0940000117,
        "nta":"SI11",
        "population":23313
    },
    {
        "boro_name":"Queens",
        "name":"Far Rockaway-Bayswater",
        "shape_area":54206739.2848000005,
        "nta":"QN15",
        "population":50058
    },
    {
        "boro_name":"Staten Island",
        "name":"Grymes Hill-Clifton-Fox Hills",
        "shape_area":37752289.1507000029,
        "nta":"SI08",
        "population":22460
    },
    {
        "boro_name":"Bronx",
        "name":"Pelham Bay-Country Club-City Island",
        "shape_area":40214908.6363999993,
        "nta":"BX10",
        "population":26583
    },
    {
        "boro_name":"Bronx",
        "name":"Longwood",
        "shape_area":10732452.0252,
        "nta":"BX33",
        "population":26196
    },
    {
        "boro_name":"Queens",
        "name":"Kew Gardens Hills",
        "shape_area":37879692.9221000001,
        "nta":"QN37",
        "population":37479
    },
    {
        "boro_name":"Brooklyn",
        "name":"Brownsville",
        "shape_area":32717928.6301000006,
        "nta":"BK81",
        "population":58300
    },
    {
        "boro_name":"Queens",
        "name":"Briarwood-Jamaica Hills",
        "shape_area":29269035.3806000017,
        "nta":"QN35",
        "population":39138
    },
    {
        "boro_name":"Staten Island",
        "name":"Stapleton-Rosebank",
        "shape_area":46433357.8593999967,
        "nta":"SI37",
        "population":26453
    },
    {
        "boro_name":"Queens",
        "name":"College Point",
        "shape_area":50553981.2392999977,
        "nta":"QN23",
        "population":24275
    },
    {
        "boro_name":"Queens",
        "name":"Hammels-Arverne-Edgemere",
        "shape_area":61899914.5305999964,
        "nta":"QN12",
        "population":36885
    },
    {
        "boro_name":"Queens",
        "name":"Bayside-Bayside Hills",
        "shape_area":80744707.7653000057,
        "nta":"QN46",
        "population":43808
    },
    {
        "boro_name":"Queens",
        "name":"Elmhurst-Maspeth",
        "shape_area":21919703.0291000009,
        "nta":"QN50",
        "population":25521
    },
    {
        "boro_name":"Brooklyn",
        "name":"East Flatbush-Farragut",
        "shape_area":34360313.5603,
        "nta":"BK91",
        "population":50355
    },
    {
        "boro_name":"Brooklyn",
        "name":"Erasmus",
        "shape_area":14531187.4614000004,
        "nta":"BK95",
        "population":29938
    },
    {
        "boro_name":"Queens",
        "name":"Laurelton",
        "shape_area":39788638.9518000036,
        "nta":"QN66",
        "population":24453
    },
    {
        "boro_name":"Queens",
        "name":"Fresh Meadows-Utopia",
        "shape_area":27774853.9525000006,
        "nta":"QN41",
        "population":17812
    },
    {
        "boro_name":"Brooklyn",
        "name":"Brooklyn Heights-Cobble Hill",
        "shape_area":9985082.7322899997,
        "nta":"BK09",
        "population":22887
    },
    {
        "boro_name":"Queens",
        "name":"Richmond Hill",
        "shape_area":50978396.0428000018,
        "nta":"QN54",
        "population":62982
    },
    {
        "boro_name":"Staten Island",
        "name":"Mariner's Harbor-Arlington-Port Ivory-Graniteville",
        "shape_area":89462868.5031999946,
        "nta":"SI12",
        "population":31474
    },
    {
        "boro_name":"Staten Island",
        "name":"Port Richmond",
        "shape_area":36417487.2087000012,
        "nta":"SI28",
        "population":20191
    },
    {
        "boro_name":"Bronx",
        "name":"Norwood",
        "shape_area":15724927.9849999994,
        "nta":"BX43",
        "population":40494
    },
    {
        "boro_name":"Brooklyn",
        "name":"Prospect Heights",
        "shape_area":10233482.5702999998,
        "nta":"BK64",
        "population":19849
    },
    {
        "boro_name":"Bronx",
        "name":"Soundview-Bruckner",
        "shape_area":16254945.3347999994,
        "nta":"BX55",
        "population":35634
    },
    {
        "boro_name":"Brooklyn",
        "name":"Crown Heights South",
        "shape_area":15979073.8663999997,
        "nta":"BK63",
        "population":39670
    },
    {
        "boro_name":"Staten Island",
        "name":"Grasmere-Arrochar-Ft. Wadsworth",
        "shape_area":40915287.431599997,
        "nta":"SI14",
        "population":16079
    },
    {
        "boro_name":"Bronx",
        "name":"Belmont",
        "shape_area":13559325.1675000004,
        "nta":"BX06",
        "population":27378
    },
    {
        "boro_name":"Brooklyn",
        "name":"Seagate-Coney Island",
        "shape_area":38765848.9914000034,
        "nta":"BK21",
        "population":31965
    },
    {
        "boro_name":"Brooklyn",
        "name":"Gravesend",
        "shape_area":31329055.9283000007,
        "nta":"BK26",
        "population":29436
    },
    {
        "boro_name":"Bronx",
        "name":"North Riverdale-Fieldston-Riverdale",
        "shape_area":49048278.9021999985,
        "nta":"BX22",
        "population":27860
    },
    {
        "boro_name":"Queens",
        "name":"Glendale",
        "shape_area":30016736.010400001,
        "nta":"QN19",
        "population":32496
    },
    {
        "boro_name":"Brooklyn",
        "name":"Sunset Park East",
        "shape_area":27110085.0397000015,
        "nta":"BK34",
        "population":72340
    },
    {
        "boro_name":"Bronx",
        "name":"Eastchester-Edenwald-Baychester",
        "shape_area":40264969.6947999969,
        "nta":"BX03",
        "population":34517
    },
    {
        "boro_name":"Bronx",
        "name":"Allerton-Pelham Gardens",
        "shape_area":31684835.4395000003,
        "nta":"BX31",
        "population":28903
    },
    {
        "boro_name":"Queens",
        "name":"Forest Hills",
        "shape_area":57823290.7594999969,
        "nta":"QN17",
        "population":83728
    },
    {
        "boro_name":"Bronx",
        "name":"Spuyten Duyvil-Kingsbridge",
        "shape_area":23214111.8748999983,
        "nta":"BX29",
        "population":30161
    },
    {
        "boro_name":"Bronx",
        "name":"Kingsbridge Heights",
        "shape_area":13163118.8859000001,
        "nta":"BX30",
        "population":32496
    },
    {
        "boro_name":"Brooklyn",
        "name":"Bath Beach",
        "shape_area":20556460.0271999985,
        "nta":"BK27",
        "population":29931
    },
    {
        "boro_name":"Bronx",
        "name":"Bedford Park-Fordham North",
        "shape_area":14998883.8321000002,
        "nta":"BX05",
        "population":54415
    },
    {
        "boro_name":"Queens",
        "name":"Flushing",
        "shape_area":37864244.4196999967,
        "nta":"QN22",
        "population":72008
    },
    {
        "boro_name":"Queens",
        "name":"Murray Hill",
        "shape_area":52488277.1137999967,
        "nta":"QN51",
        "population":51739
    },
    {
        "boro_name":"Queens",
        "name":"Springfield Gardens North",
        "shape_area":28427868.8605999984,
        "nta":"QN02",
        "population":25409
    },
    {
        "boro_name":"Queens",
        "name":"Baisley Park",
        "shape_area":44040866.0137000009,
        "nta":"QN76",
        "population":34603
    },
    {
        "boro_name":"Bronx",
        "name":"Morrisania-Melrose",
        "shape_area":16891753.2692999989,
        "nta":"BX35",
        "population":37865
    },
    {
        "boro_name":"Queens",
        "name":"Jackson Heights",
        "shape_area":47861058.0248999968,
        "nta":"QN28",
        "population":108152
    },
    {
        "boro_name":"Queens",
        "name":"Woodside",
        "shape_area":28248327.9926000014,
        "nta":"QN63",
        "population":45099
    },
    {
        "boro_name":"Brooklyn",
        "name":"Borough Park",
        "shape_area":54004947.2387000024,
        "nta":"BK88",
        "population":106357
    },
    {
        "boro_name":"Manhattan",
        "name":"Turtle Bay-East Midtown",
        "shape_area":17390168.503800001,
        "nta":"MN19",
        "population":51231
    },
    {
        "boro_name":"Queens",
        "name":"Bellerose",
        "shape_area":55193394.6221999973,
        "nta":"QN43",
        "population":25287
    },
    {
        "boro_name":"Queens",
        "name":"Jamaica",
        "shape_area":47308298.4055999964,
        "nta":"QN61",
        "population":53751
    },
    {
        "boro_name":"Manhattan",
        "name":"Hamilton Heights",
        "shape_area":15984383.1516999993,
        "nta":"MN04",
        "population":48520
    },
    {
        "boro_name":"Manhattan",
        "name":"Stuyvesant Town-Cooper Village",
        "shape_area":5575563.2123100003,
        "nta":"MN50",
        "population":21049
    },
    {
        "boro_name":"Brooklyn",
        "name":"Flatlands",
        "shape_area":54343845.3300999999,
        "nta":"BK58",
        "population":64762
    },
    {
        "boro_name":"Brooklyn",
        "name":"Rugby-Remsen Village",
        "shape_area":32705427.4422000013,
        "nta":"BK96",
        "population":55326
    },
    {
        "boro_name":"Brooklyn",
        "name":"East Williamsburg",
        "shape_area":39132383.1494999975,
        "nta":"BK90",
        "population":34158
    },
    {
        "boro_name":"Bronx",
        "name":"Westchester-Unionport",
        "shape_area":23945299.2430000007,
        "nta":"BX59",
        "population":27248
    },
    {
        "boro_name":"Queens",
        "name":"Breezy Point-Belle Harbor-Rockaway Park-Broad Channel",
        "shape_area":99625777.6427000016,
        "nta":"QN10",
        "population":28018
    },
    {
        "boro_name":"Brooklyn",
        "name":"Sheepshead Bay-Gerritsen Beach-Manhattan Beach",
        "shape_area":63355880.2444999963,
        "nta":"BK17",
        "population":64518
    },
    {
        "boro_name":"Bronx",
        "name":"Highbridge",
        "shape_area":16457635.5976,
        "nta":"BX26",
        "population":37727
    },
    {
        "boro_name":"Staten Island",
        "name":"New Dorp-Midland Beach",
        "shape_area":55448202.1327000037,
        "nta":"SI45",
        "population":21896
    },
    {
        "boro_name":"Staten Island",
        "name":"Old Town-Dongan Hills-South Beach",
        "shape_area":67011977.4534000009,
        "nta":"SI36",
        "population":24835
    },
    {
        "boro_name":"Manhattan",
        "name":"Washington Heights South",
        "shape_area":23127085.7522,
        "nta":"MN36",
        "population":84438
    },
    {
        "boro_name":"Manhattan",
        "name":"East Harlem North",
        "shape_area":24494917.1959999986,
        "nta":"MN34",
        "population":58019
    },
    {
        "boro_name":"Manhattan",
        "name":"Chinatown",
        "shape_area":14501876.7432000004,
        "nta":"MN27",
        "population":47844
    },
    {
        "boro_name":"Manhattan",
        "name":"Gramercy",
        "shape_area":7526916.5030399999,
        "nta":"MN21",
        "population":27988
    },
    {
        "boro_name":"Manhattan",
        "name":"Lenox Hill-Roosevelt Island",
        "shape_area":21508615.695700001,
        "nta":"MN31",
        "population":80771
    },
    {
        "boro_name":"Manhattan",
        "name":"Upper East Side-Carnegie Hill",
        "shape_area":20065364.3289999999,
        "nta":"MN40",
        "population":61207
    },
    {
        "boro_name":"Manhattan",
        "name":"East Harlem South",
        "shape_area":16650685.4397,
        "nta":"MN33",
        "population":57902
    },
    {
        "boro_name":"Brooklyn",
        "name":"Carroll Gardens-Columbia Street-Red Hook",
        "shape_area":44603982.8316000029,
        "nta":"BK33",
        "population":38353
    },
    {
        "boro_name":"Brooklyn",
        "name":"Crown Heights North",
        "shape_area":51627171.0033000037,
        "nta":"BK61",
        "population":103169
    },
    {
        "boro_name":"Brooklyn",
        "name":"Clinton Hill",
        "shape_area":20528197.4353,
        "nta":"BK69",
        "population":34791
    },
    {
        "boro_name":"Queens",
        "name":"Corona",
        "shape_area":20077317.0278999992,
        "nta":"QN25",
        "population":57658
    },
    {
        "boro_name":"Brooklyn",
        "name":"Dyker Heights",
        "shape_area":29917451.0117000006,
        "nta":"BK30",
        "population":42419
    },
    {
        "boro_name":"Brooklyn",
        "name":"Bay Ridge",
        "shape_area":67226641.4839999974,
        "nta":"BK31",
        "population":79371
    },
    {
        "boro_name":"Bronx",
        "name":"Claremont-Bathgate",
        "shape_area":16451870.7087999992,
        "nta":"BX01",
        "population":31078
    },
    {
        "boro_name":"Bronx",
        "name":"Fordham South",
        "shape_area":6308874.9907999998,
        "nta":"BX40",
        "population":28262
    },
    {
        "boro_name":"Bronx",
        "name":"Soundview-Castle Hill-Clason Point-Harding Park",
        "shape_area":51982088.2924000025,
        "nta":"BX09",
        "population":53686
    },
    {
        "boro_name":"Bronx",
        "name":"Pelham Parkway",
        "shape_area":23020867.5025999993,
        "nta":"BX49",
        "population":30073
    },
    {
        "boro_name":"Brooklyn",
        "name":"Midwood",
        "shape_area":35799575.1071000025,
        "nta":"BK43",
        "population":52835
    },
    {
        "boro_name":"Brooklyn",
        "name":"Ocean Parkway South",
        "shape_area":17782095.7146999985,
        "nta":"BK46",
        "population":20299
    },
    {
        "boro_name":"Staten Island",
        "name":"park-cemetery-etc-Staten Island",
        "shape_area":23386261.5843999982,
        "nta":"SI99",
        "population":0
    },
    {
        "boro_name":"Manhattan",
        "name":"Morningside Heights",
        "shape_area":20153942.3936999999,
        "nta":"MN09",
        "population":55929
    },
    {
        "boro_name":"Manhattan",
        "name":"Central Harlem South",
        "shape_area":14441227.8101000004,
        "nta":"MN11",
        "population":43383
    },
    {
        "boro_name":"Manhattan",
        "name":"Midtown-Midtown South",
        "shape_area":30191277.4686000012,
        "nta":"MN17",
        "population":28630
    },
    {
        "boro_name":"Manhattan",
        "name":"Yorkville",
        "shape_area":13648287.7970000003,
        "nta":"MN32",
        "population":77942
    },
    {
        "boro_name":"Queens",
        "name":"Old Astoria",
        "shape_area":15620456.0781999994,
        "nta":"QN71",
        "population":27814
    },
    {
        "boro_name":"Queens",
        "name":"Airport",
        "shape_area":228219796.8149999976,
        "nta":"QN98",
        "population":0
    },
    {
        "boro_name":"Brooklyn",
        "name":"Homecrest",
        "shape_area":29991855.9785000011,
        "nta":"BK25",
        "population":44316
    },
    {
        "boro_name":"Brooklyn",
        "name":"Bensonhurst West",
        "shape_area":46663410.3831999972,
        "nta":"BK28",
        "population":88727
    },
    {
        "boro_name":"Brooklyn",
        "name":"Bensonhurst East",
        "shape_area":35806720.7540000007,
        "nta":"BK29",
        "population":62978
    },
    {
        "boro_name":"Queens",
        "name":"Springfield Gardens South-Brookville",
        "shape_area":43287455.4170999974,
        "nta":"QN03",
        "population":20132
    },
    {
        "boro_name":"Queens",
        "name":"Rosedale",
        "shape_area":61569463.4390999973,
        "nta":"QN05",
        "population":25063
    },
    {
        "boro_name":"Staten Island",
        "name":"Todt Hill-Emerson Hill-Heartland Village-Lighthouse Hill",
        "shape_area":184889367.6259999871,
        "nta":"SI24",
        "population":30714
    },
    {
        "boro_name":"Bronx",
        "name":"Woodlawn-Wakefield",
        "shape_area":39738653.113499999,
        "nta":"BX62",
        "population":42483
    },
    {
        "boro_name":"Bronx",
        "name":"Schuylerville-Throgs Neck-Edgewater Park",
        "shape_area":88432815.9958000034,
        "nta":"BX52",
        "population":44167
    },
    {
        "boro_name":"Queens",
        "name":"Queensbridge-Ravenswood-Long Island City",
        "shape_area":23312942.5857000016,
        "nta":"QN68",
        "population":20030
    },
    {
        "boro_name":"Queens",
        "name":"Ozone Park",
        "shape_area":25016771.4945,
        "nta":"QN56",
        "population":21376
    },
    {
        "boro_name":"Queens",
        "name":"Lindenwood-Howard Beach",
        "shape_area":64543968.1330000013,
        "nta":"QN57",
        "population":26148
    },
    {
        "boro_name":"Manhattan",
        "name":"Upper West Side",
        "shape_area":34379942.2290000021,
        "nta":"MN12",
        "population":132378
    },
    {
        "boro_name":"Manhattan",
        "name":"Lincoln Square",
        "shape_area":15805914.3100000005,
        "nta":"MN14",
        "population":61489
    },
    {
        "boro_name":"Queens",
        "name":"Astoria",
        "shape_area":39335039.1317000017,
        "nta":"QN70",
        "population":78793
    },
    {
        "boro_name":"Queens",
        "name":"Steinway",
        "shape_area":57725501.9839000031,
        "nta":"QN72",
        "population":47534
    },
    {
        "boro_name":"Bronx",
        "name":"Williamsbridge-Olinville",
        "shape_area":36275454.4442000017,
        "nta":"BX44",
        "population":61321
    },
    {
        "boro_name":"Bronx",
        "name":"East Tremont",
        "shape_area":19255261.1405000016,
        "nta":"BX17",
        "population":43423
    },
    {
        "boro_name":"Bronx",
        "name":"University Heights-Morris Heights",
        "shape_area":21255485.4600999989,
        "nta":"BX36",
        "population":54188
    },
    {
        "boro_name":"Queens",
        "name":"Ridgewood",
        "shape_area":50495175.5542000011,
        "nta":"QN20",
        "population":69317
    },
    {
        "boro_name":"Queens",
        "name":"Middle Village",
        "shape_area":57685348.4492999986,
        "nta":"QN21",
        "population":37929
    },
    {
        "boro_name":"Bronx",
        "name":"East Concourse-Concourse Village",
        "shape_area":18221533.4239999987,
        "nta":"BX14",
        "population":62284
    },
    {
        "boro_name":"Brooklyn",
        "name":"Flatbush",
        "shape_area":45246195.1228,
        "nta":"BK42",
        "population":105804
    },
    {
        "boro_name":"Queens",
        "name":"East Elmhurst",
        "shape_area":19725100.7001999989,
        "nta":"QN27",
        "population":23150
    },
    {
        "boro_name":"Staten Island",
        "name":"Annadale-Huguenot-Prince's Bay-Eltingville",
        "shape_area":141190243.5230000019,
        "nta":"SI01",
        "population":27770
    },
    {
        "boro_name":"Staten Island",
        "name":"Rossville-Woodrow",
        "shape_area":64964391.8061000034,
        "nta":"SI32",
        "population":20763
    },
    {
        "boro_name":"Brooklyn",
        "name":"Brighton Beach",
        "shape_area":17180662.5841000006,
        "nta":"BK19",
        "population":35547
    },
    {
        "boro_name":"Brooklyn",
        "name":"West Brighton",
        "shape_area":8738768.9803199992,
        "nta":"BK23",
        "population":17750
    },
    {
        "boro_name":"Staten Island",
        "name":"Oakwood-Oakwood Beach",
        "shape_area":55936023.6046999991,
        "nta":"SI25",
        "population":22049
    },
    {
        "boro_name":"Staten Island",
        "name":"Great Kills",
        "shape_area":89611143.7383999974,
        "nta":"SI54",
        "population":40720
    },
    {
        "boro_name":"Manhattan",
        "name":"Hudson Yards-Chelsea-Flatiron-Union Square",
        "shape_area":37054369.1882999986,
        "nta":"MN13",
        "population":70150
    },
    {
        "boro_name":"Manhattan",
        "name":"Clinton",
        "shape_area":18373850.6794000007,
        "nta":"MN15",
        "population":45884
    },
    {
        "boro_name":"Brooklyn",
        "name":"Williamsburg",
        "shape_area":11589607.9945999999,
        "nta":"BK72",
        "population":32926
    },
    {
        "boro_name":"Staten Island",
        "name":"New Springville-Bloomfield-Travis",
        "shape_area":327194482.4160000086,
        "nta":"SI05",
        "population":39597
    },
    {
        "boro_name":"Staten Island",
        "name":"Arden Heights",
        "shape_area":50414782.6480000019,
        "nta":"SI48",
        "population":25238
    },
    {
        "boro_name":"Bronx",
        "name":"Crotona Park East",
        "shape_area":16311864.7698999997,
        "nta":"BX75",
        "population":20277
    },
    {
        "boro_name":"Manhattan",
        "name":"SoHo-TriBeCa-Civic Center-Little Italy",
        "shape_area":25032679.8465000018,
        "nta":"MN24",
        "population":42742
    },
    {
        "boro_name":"Manhattan",
        "name":"Battery Park City-Lower Manhattan",
        "shape_area":19011672.5445000008,
        "nta":"MN25",
        "population":39699
    },
    {
        "boro_name":"Bronx",
        "name":"West Farms-Bronx River",
        "shape_area":15084335.1520000007,
        "nta":"BX08",
        "population":35011
    },
    {
        "boro_name":"Manhattan",
        "name":"Central Harlem North-Polo Grounds",
        "shape_area":25403028.2261000015,
        "nta":"MN03",
        "population":75282
    },
    {
        "boro_name":"Manhattan",
        "name":"park-cemetery-etc-Manhattan",
        "shape_area":91482802.5541999936,
        "nta":"MN99",
        "population":1849
    },
    {
        "boro_name":"Queens",
        "name":"Douglas Manor-Douglaston-Little Neck",
        "shape_area":67889346.4284999967,
        "nta":"QN45",
        "population":24739
    },
    {
        "boro_name":"Queens",
        "name":"Jamaica Estates-Holliswood",
        "shape_area":42789750.3803000003,
        "nta":"QN06",
        "population":25480
    },
    {
        "boro_name":"Brooklyn",
        "name":"Sunset Park West",
        "shape_area":49955596.947800003,
        "nta":"BK32",
        "population":54041
    },
    {
        "boro_name":"Brooklyn",
        "name":"Park Slope-Gowanus",
        "shape_area":42505207.441399999,
        "nta":"BK37",
        "population":67649
    },
    {
        "boro_name":"Queens",
        "name":"Queens Village",
        "shape_area":69534363.3171000034,
        "nta":"QN34",
        "population":52504
    },
    {
        "boro_name":"Queens",
        "name":"Oakland Gardens",
        "shape_area":51008754.5201999992,
        "nta":"QN42",
        "population":28237
    },
    {
        "boro_name":"Bronx",
        "name":"Van Nest-Morris Park-Westchester Square",
        "shape_area":36319874.9016000032,
        "nta":"BX37",
        "population":29250
    },
    {
        "boro_name":"Bronx",
        "name":"Parkchester",
        "shape_area":9184334.8125999998,
        "nta":"BX46",
        "population":29821
    },
    {
        "boro_name":"Queens",
        "name":"Maspeth",
        "shape_area":35633108.9341000021,
        "nta":"QN30",
        "population":30516
    },
    {
        "boro_name":"Queens",
        "name":"Hunters Point-Sunnyside-West Maspeth",
        "shape_area":102424934.0990000069,
        "nta":"QN31",
        "population":63271
    },
    {
        "boro_name":"Queens",
        "name":"Rego Park",
        "shape_area":19941865.4037000015,
        "nta":"QN18",
        "population":28260
    },
    {
        "boro_name":"Queens",
        "name":"Elmhurst",
        "shape_area":32682813.3962999992,
        "nta":"QN29",
        "population":88427
    },
    {
        "boro_name":"Brooklyn",
        "name":"DUMBO-Vinegar Hill-Downtown Brooklyn-Boerum Hill",
        "shape_area":28476938.3451999985,
        "nta":"BK38",
        "population":34495
    },
    {
        "boro_name":"Brooklyn",
        "name":"Stuyvesant Heights",
        "shape_area":31407114.0109999999,
        "nta":"BK35",
        "population":63504
    },
    {
        "boro_name":"Brooklyn",
        "name":"Bushwick South",
        "shape_area":40169273.9900000021,
        "nta":"BK78",
        "population":72101
    },
    {
        "boro_name":"Bronx",
        "name":"Hunts Point",
        "shape_area":49693240.8966000006,
        "nta":"BX27",
        "population":27204
    },
    {
        "boro_name":"Brooklyn",
        "name":"Cypress Hills-City Line",
        "shape_area":27609540.9754999988,
        "nta":"BK83",
        "population":49223
    },
    {
        "boro_name":"Queens",
        "name":"Woodhaven",
        "shape_area":37034075.9267000034,
        "nta":"QN53",
        "population":56674
    },
    {
        "boro_name":"Brooklyn",
        "name":"Prospect Lefferts Gardens-Wingate",
        "shape_area":31638434.5465999991,
        "nta":"BK60",
        "population":67459
    },
    {
        "boro_name":"Bronx",
        "name":"Melrose South-Mott Haven North",
        "shape_area":17271764.0362000018,
        "nta":"BX34",
        "population":39214
    },
    {
        "boro_name":"Bronx",
        "name":"Mott Haven-Port Morris",
        "shape_area":41898613.5988000035,
        "nta":"BX39",
        "population":52413
    },
    {
        "boro_name":"Bronx",
        "name":"West Concourse",
        "shape_area":19366416.2873999998,
        "nta":"BX63",
        "population":39282
    },
    {
        "boro_name":"Staten Island",
        "name":"New Brighton-Silver Lake",
        "shape_area":47136309.2370000035,
        "nta":"SI35",
        "population":17525
    },
    {
        "boro_name":"Staten Island",
        "name":"Westerleigh",
        "shape_area":63257774.6058999971,
        "nta":"SI07",
        "population":24102
    },
    {
        "boro_name":"Staten Island",
        "name":"West New Brighton-New Brighton-St. George",
        "shape_area":56028570.5756999999,
        "nta":"SI22",
        "population":33551
    },
    {
        "boro_name":"Brooklyn",
        "name":"Ocean Hill",
        "shape_area":20090098.378899999,
        "nta":"BK79",
        "population":31935
    },
    {
        "boro_name":"Brooklyn",
        "name":"East New York (Pennsylvania Ave)",
        "shape_area":19397339.0584000014,
        "nta":"BK85",
        "population":29343
    },
    {
        "boro_name":"Brooklyn",
        "name":"Greenpoint",
        "shape_area":35321207.183799997,
        "nta":"BK76",
        "population":34719
    },
    {
        "boro_name":"Manhattan",
        "name":"Murray Hill-Kips Bay",
        "shape_area":14459388.9940000009,
        "nta":"MN20",
        "population":50742
    },
    {
        "boro_name":"Manhattan",
        "name":"East Village",
        "shape_area":10894242.6215000004,
        "nta":"MN22",
        "population":44136
    },
    {
        "boro_name":"Manhattan",
        "name":"West Village",
        "shape_area":24886380.5403999984,
        "nta":"MN23",
        "population":66880
    },
    {
        "boro_name":"Manhattan",
        "name":"Marble Hill-Inwood",
        "shape_area":17770179.5945999995,
        "nta":"MN01",
        "population":46746
    },
    {
        "boro_name":"Manhattan",
        "name":"Washington Heights North",
        "shape_area":22670249.306499999,
        "nta":"MN35",
        "population":67136
    },
    {
        "boro_name":"Queens",
        "name":"Ft. Totten-Bay Terrace-Clearview",
        "shape_area":46322203.7924000025,
        "nta":"QN47",
        "population":21751
    },
    {
        "boro_name":"Queens",
        "name":"Whitestone",
        "shape_area":69050624.5555000007,
        "nta":"QN49",
        "population":30773
    },
    {
        "boro_name":"Queens",
        "name":"Kew Gardens",
        "shape_area":20444375.4277999997,
        "nta":"QN60",
        "population":23278
    },
    {
        "boro_name":"Queens",
        "name":"park-cemetery-etc-Queens",
        "shape_area":308298028.4639999866,
        "nta":"QN99",
        "population":436
    },
    {
        "boro_name":"Bronx",
        "name":"Co-op City",
        "shape_area":39789829.6275999993,
        "nta":"BX13",
        "population":43752
    },
    {
        "boro_name":"Bronx",
        "name":"park-cemetery-etc-Bronx",
        "shape_area":221420629.6180000007,
        "nta":"BX99",
        "population":1906
    },
    {
        "boro_name":"Brooklyn",
        "name":"Georgetown-Marine Park-Bergen Beach-Mill Basin",
        "shape_area":69455153.686499998,
        "nta":"BK45",
        "population":45231
    },
    {
        "boro_name":"Brooklyn",
        "name":"East New York",
        "shape_area":117030179.1420000046,
        "nta":"BK82",
        "population":91958
    },
    {
        "boro_name":"Brooklyn",
        "name":"Starrett City",
        "shape_area":11598952.5950000007,
        "nta":"BK93",
        "population":13354
    },
    {
        "boro_name":"Brooklyn",
        "name":"North Side-South Side",
        "shape_area":28854355.6534999982,
        "nta":"BK73",
        "population":45774
    },
    {
        "boro_name":"Manhattan",
        "name":"Lower East Side",
        "shape_area":23300685.8847000003,
        "nta":"MN28",
        "population":72957
    },
    {
        "boro_name":"Brooklyn",
        "name":"Windsor Terrace",
        "shape_area":14041667.8647000007,
        "nta":"BK40",
        "population":20988
    },
    {
        "boro_name":"Brooklyn",
        "name":"park-cemetery-etc-Brooklyn",
        "shape_area":225371149.8140000105,
        "nta":"BK99",
        "population":418
    }
]